{
    "$schema": "http://json-schema.org/draft-04/schema#",
    "definitions": {},
    "properties": {
        "hash": {
            "description": "",
            "id": "/properties/hash",
            "type": "string"
        }
    },
    "additionalProperties": false,
    "required": [
        "hash"
    ],
    "type": "object"
}